Direct-Line Te]: 044 8381144 Fax: 044 8370073

Unser Auftrag : EMRV-092983
Unser Zeichen : Frau N. Bertschy
Versandart : Camion Merk1e
Ihre Beste11ung: BL-021950
Beste11datum : 14.12.2017
Beste11art :

Ihr Zeichen : Herr S. Ba1zer

MWST-Nr.
Ihre MNST-Nr. : DE172338469
Kundennummer : 233034

Rotronic Messgerate GmbH
Einsteinstrasse 17-23

DE 76275 Ett11ngen

Bassersdorf. 06.02.2018

I CHE-105.835.768 MWST

Seite 1

Pos.

Artikel-Nr. l Bezeichnung

galiefarta Mange

Einzal-Prels %

Betrag

10

Incoterms 2010: EXW Bassersdorf

*********************************

EORI Nr. DE4669495

******************

Unser Lieferschein 1955340 vom 06.02.2018

HL-NTZ-D
Daten1ogger, Fﬂh1er separat Beste11en,
Disp1ay

Zo11pos.: 9025.8000 Ursprung: CH
Serie-Nummern:
61764477 - 61764490 14 Stk
61764495 — 61764501 7 Stk
61764493
61768500
61769300
61769673

Preise 1nk1. vorgezogener Recych’ng-
Gebﬁhren Oder separat ausgewiesen

25 Stk

286.67

ll

7,166.75

ROTRONIC AG - Grindelstrasse 6 ' Postfach 451 . CH—8303 Bassersdorf - Telefon 044 83811 11 - Telefax 044 83814 83
Zertifiziert nach ISO 9001

www.rotronic.ch