
"AEM623
CSL Plasma
Rechnung
Saite 1/2
Rechnung
Lieferung
Auftrag
Referenz
Kunde
992010721/28.09.2017
81733590 / 27.09.2017
1563146 25.09.2017
PO20161221 11.01.2017
8211095 DE20349 2966
CSL Behring AG
Wankdorfstrasse 10
CH-3000 BERN 22
Zahlung
60 Tage netto
Versand
LKW
DAP Bern
geliefert benannter Ort
Transport: CSLEU 17 324
Mehrwertsteuernummer: CHE-105.544.325
Bewilligungsnummer: 905
Pos.
Produktnr.
stat.Wnr.
Produkt
МЕ
Menge
Preis/PME
USD
Gesamtpreis
USD
Collo
Charge
Herstelldat./Verfallsdat.
CH-Menge
10
75009
30021200
Source Plasma, A, Salvage
Shipment: 68842
62,805
118,60
7.448,67
66133
66754
00.00.0000/00.00.0000
00.00.0000/00.00.0000
52,065
10,740
75149
30021200
20
SOURCE PLASMA SGL GHA
Shipment: 68842
152,945
118,60
18.139,28
67172
00.00.0000/00.00.0000
152,945
30
75154
30021 200
Plasma S ZPS12 YELLOWH GHA
Shipment: 68842
3.791,971
L
118,60
449.727,76
66101
67379
67871
00.00.0000/00.00.0000
00.00.0000/00.00.0000
00.00.0000/00.00.0000
505,101
839,616
2.447,254
Source Plasma, A, Salvage
Shipment: 68849
40
75009
30021200
L
195,241
118,60
23.155,58
66754
00.00.0000/00.00.0000
195,241
75124
30021 200
50
Plasma S ZPS12 YELLOW H GHA
Shipment: 68849
L
3.818,291
118,60
452.849,31
65113
67232
67377
67381
67391
67448
00.00.0000/00.00.0000
00.00.0000/00.00.0000
00.00.0000/00.00.0000
00.00.0000/00.00.0000
00.00.0000/00.00.0000
00.00.0000/00.00.0000
885,394
504,783
503,673
751,908
125,143
1.047,390
Source Plasma, A, Salvage
Shipment: 68850
75009
30021200
191,808
118,60
22.748,43
00.00.0000/0o.00.0000
66754
191,808
70
75124
30021 200
Plasma S ZPS12 YELLOWH GHA
Shipment: 68850
L
3.819,851
118,60
453.034,34
65113
00.00.0000/Oo.00.0000
507,459
CSL Plasma GmbH Postfach 12 30 D-35002 Marburg
Telefon +49 (0) 6421 39 2542 Fax + 49 (0) 6421 39 4727
Bankverbindung:
Deutsche Bank AG, Frankfurt (BLZ 500 700 10) Kto. 912 089 00
BAN: DE48 5007 0010 0091 2089 00, SWIFT/BIC: DEUTDEFF
Geschäftsführer: Mike Deem-Berthold Süsser-Michael Schröder
Sitz der Gesellschaft: Marburg
Handelsregister Marburg HRB 24 4
UID: DE 136717666 Tax-No: 020 225 13305
(B. Süsser) (ppa. G. Möbus)
60
"
