rotronic

Direct-Line Tel: 044 8381144 Fax: 044 8370073

Unser Auftrag : EMRV-092983 MWST-Nr. : CHE-105.835.768 MWST
Unser Zeichen : Frau N. Bertschy Ihre MWST-Nr. : DE172338469
Versandart : Camion Merkle Kundennummer : 233034

Ihre Bestellung: BL-021950
Bestelldatum  : 14.12.2017
Bestellart ; Rotronic Messgerdte GmbH
Ihr Zeichen : Herr S. Balzer Einsteinstrasse 17-23
DE 76275 Ettlingen

 

Bassersdorf, 06.02.2018 Seite 1

Pos. Artikel-Nr. / Bezeichnung gelieferte Menge Einzel-Preis f%| | Bewag |

Incoterms 2010: EXW Bassersdorf
8
25 Stk 286.67 11 7,166.75

KK IK IK KKK KIKI IRI REIKI II IK
EORI Nr. DE4669495

ROTRONIC AG » Grindelstrasse 6 « Postfach 451 » CH-8303 Bassersdorf + Telefon 044 838 11 11 + Telefax 044 838 14 83

Wwww.rotronic.ch Zertifiziert nach ISO 9001

     
     
 
   
   
     
    

KKKKKKKKEKKEKKEKKEKKK

Unser Lieferschein 1955340 vom 06.02.20

HL -NT2-D
Datenlogger, Fuhler separat Bestellen,
Display

Zollpos.: 9025.8000 Ursprung: CH
Serie-Nummern:
61764477 - 61764490 14 Stk
61764495 - 61764501 7 Stk
61764493
61768500
61769300
61769673

        
   
   
   
   
   
    

Preise inkl. vorgezogener Recycling-
Geblhren oder separat ausgewiesen
