
"rotronic
Direct Line Tel: 044 8381144 Fax: 044 8370073
Unser Auftrag : EMRV-092983
Unser Zeichen : Frau N. Bertschy
Versandart
Ihre Bestellung: BL-021950
Bestelldatum
Bestellart
Ihr Zeichen
MWST-Nr
Ihre MWST-Nr. : DE172338469
Kundennummer
CHE-105.835.768 MWST
: 233034
:Camion Merkle
:14.12.2017
Rotronic Messgeräte GmbH
Einsteinstrasse 17-23
DE 76275 Ettlingen
Herr S. Balzer
FAKTURA 538123
Bassersdorf, 06.02.2018
Seite 1
Artikel-Nr. / Bezeichnung
Betrag
Pos.
gelieferte Menge
Einzel-Preis
Incoterms 2010: EXW Bassersdorf
**
EORI Nr. DE4669495
*****
***
Unser Lieferschein 1955340
06.02.2018
vom
10 HL-NT2-D
Datenlogger, Fühler separat Bestellen,
Display
Zollpos.: 9025.8000
Serie-Nummern:
61764477
61764495 61764501
61764493
61768500
61769300
61769673
25 Stk
286.67
7,166.75
11
Ursprung: CH
14 Stk
7 Stk
61764490
Preise inkl. vorgezogener Recycling-
Gebühren oder separat ausgewiesen
ROTRONIC AG Grindelstrasse 6 Postfach 451 . CH-8303 Bassersdorf Telefon 044 838 11 11 Telefax 044 838 14 83
Zertifiziert nach ISO 9001
www.rotronic.ch
"
