CSL Plasma

CSL Behring AG

Wankdorfstrasse 10

CH-3000 BERN 22

Transport: CSLEU17 - 324
ac fhe al 05.544.325

Bewilligungsnummer: 9

Rechnung
Lieferung

Auftrag
Referenz
Kunde

CE 62S

992010721 / 28.09.2017
81733590 / 27.09.2017

1563146 / 25.09.2017

PO20161221 / 11.01.2017

8211095 / DE203492966

 

 

Zahlung

60 Tage netto

Versand
LKW

DAP Bern
geliefert benannter Ort

 

 

 

 

 

 

 

 

 

 

 

Pos. Produktnr. Produkt ME Menge Preis/PME Gesamtpreis
stat.Wnr. USD Usp
Collo
Charge Herstelldat./Verfallsdat. CH-Menge
10 75009 Source Plasma, A, Salvage L. 62,805 118,60 7.448,67
30021200 Shipment: 68842
66133 00,00.0000/00.00.0000 52,065
66754 00.00.0000/00.00.0000 10,740
20 75149 SOURCE PLASMA SGL GHA L 152,945 118,60 18.139,28
30021200 Shipment: 68842
67172 00.00.0000/00.00.0000 152,945
30 75154 Plasma S ZPS12 YELLOW H GHA is 3.791,971 118,60 449.727,76
30021200 Shipment: 68842
66101 00.00.0000/00.00.0000 505,101
67379 00.00.0000/00.00.0000 839,616
67871 00.00.0000/00.00.0000 2,447,254
40 75009 Source Plasma, A, Salvage iB 195,241 118,60 23.155,58
30021200 Shipment: 68849
66754. 00.00.0000/00.00.0000 195,241
50 76124 Plasma S ZPS12 YELLOW H GHA L 3.818,291 118,60 452.849,31
30021200 Shipment: 68849
65113 00.00.0000/00.00.0000 885,394
67232 00,00,0000/00.00.0000 504,783
67377 00,00.0000/00,00.0000 503,673
67381 00.00,0000/00.00.0000 751,908
67391 00.00.0000/00.00.0000 125,143
67448 00.00.0000/00.00,0000 1,047,390
60 75009 Source Plasma, A, Salvage L 191,808 118,60 22,748,43
30021200 Shipment: 68850
66754 00.00.0000/00.00.0000 191,808
70 75124 Plasma S ZPS12 YELLOW H GHA L 3.819,851 118,60 453,034,34
30021200 Shipment: 68850
65113 00.00.0000/00.00,0000 507,459

CSL Plasma GmbH * Postfach 12 30 * D-35002 Marburg

Telefon +49 (0) 6421 39 2642 * Fax +49 (0) 6421 39 4727
Bankverbindung:
Deutsche Bank AG, Frankfurt (BLZ 500 700 10) Kto. 912 089 00

IBAN: DE48 6007 00

10 0091

2089 00, SWIFT/BIC: DEUTDEFF

Geschaftsfihrer: Mike Deem-Berthold Sisser-Michael Schréder

Sitz der Gesellschaft: Marburg *

Handelsregister Marburg HRB 24 41

UID: DE 136717666

Tax-No: 020 225 13305

Sri (li

~~ {B, Ssser) (ppa. G. Mébus)
