
"Coo c
684
LEATHER
AVELLISYNCO
CH-4466 Ormalingen
AVELLIS SYNCO LEATHER (SWISS) AG
Langmattweg 3
o
Switzerland
98
Metzger+ Richner Transport
Représentant Fiscal de
SYNCO CHEMIE AG
Rue des Transi tai res
F-68305 Saint-Louis
France
Order No. 104511
25/09/2017
FACTURE
No. 18515
р. 1
Votre commande:15/09/2017
Votre Réf
Conditions de livraison:
N. Réf
Anne-Catherine Rosenbaum
ACR
DDP WERLE à THANN, par camion.
conditions du paiement:
30 jours net
Prix kg
Description
No. Art
Colis
Tarif douanier
Quantité
Lot
Montant EUR
8785-86
Resacor Bleu FR
2.000 Carton
EUR 15.50
50.000 kg
116091
3204.1200
775.00
EUR
3204.1290
Origine Italie
9365-86
Resacor Bleu Marine T
6.000 Carton
EUR 12.50
150.000 kg
117075
3204.1200
1875.00
EUR
Origine Suisse, non préf
8635-86
Resacor Ecarlate B
4.000 Carton
EUR 8.50
117041
3204.1200
100.000 kg
850.00
EUR
Suisse, non préf
Origine
8745-86
Resacor Violet 2R
2.000 Carton
EUR 10.35
50.000 kg
117039
3204.1200
517.50
EUR
Origine Suisse, non préf
Resacor Noir lumière PL liquide
9386-249
24.000 Kanister
EUR 3.90
636
720.000 kg
3204.1200
2808.00
EUR
Tel +41 61 985 10 45
Bank: UBS AG, CH-4410 Liestal, Switzerland
CHE-107.953.261 MWST
CHF 233-262 62 022 . 0 (IBAN CH86 0023 3233 2626 2022 0)
Fax +41 61 981 16 30
Europe Tax ID: DE 811 456 182
EUR: 233-26262022 .8 (IBAN CH64 0023 3233 2626 2022 8)
USD: 233-26262022.4 (IBAN CH75 0023 3233 2626 2022 4)
info@ave11is-synco.ch
BIC/SWIFT UBSWCHZH80A
ISO 9001:2015 certified
"
