CSL Behring AG

Wankdor'szrasse 10 Page 1 of 1
3000 BERN 22
SWITZERLAND
Phone +41(0)31 344 4444
Fax +41(0)31 344 5555
www.cslbehring.com
CSL Behrin BiIl-to address
CSL Behring AG
Wankdorfstr 10
14
Proforma Rechnung 90000239 30 Ber”
Invoice Date 07.02.2018
Customer No. DE85 Ship-to address
Y u Refer n S ‘t CSL Behring AG
0 r 8 Ge ee ' em c/o Pharmaserv GmbH
OW Order Number 4000000785 Gérzhéuser Hof M484 lnon-EU ZL
Delivery Note 86000418 Emil von Behring StrafSe 76
Delivery Truck D-35041 MARBURG
Incoterms DAP Marburg / DE
ZoHnummer: EORW DE4788176 CSL Behring AG, Bern
Steuer Nr. : 09437/05560
Lieferung: DAP / D—Marburg
Pos. Product Description Quantity Price Value
Commodity code Batch I Mfg. Date / Expiry / Origin USD USD
000001 43472 IVIG 69 AR 4.025 PC 109,69 441502.25
30021200 P100000058 / 04.12.2017 / 30.11.2020 / CH
Net Price Position 441502.25
403 Kart.
Total positionT- net ! "' 441502.25
Invoice Amount 441.502,25
Terms of Payment Net 120 Days
Gross weight 3.041.900 KG
Net weight 2.656.500 KG
VAT No. CHE—105.544.325 MWST ZSR / RCC K 4770.02
Bank: Crédit Suisse, Bern Swift: CRESCHZZBOA IBAN: CH52 0483 5027 0120 7100 0