Sapa Building Systems GmbH
Einsteinstr. 61

Invoice Original
4060828074 Page: - m 3910:? U1]; 31 39 84—0
333323; 3333:3333 33323733398324

Iillllllililiil llillllii

Hydro Building Systems Switzerland AG

Hintermﬁttij'strasse 1

CH-5506 MAGENWIL ._ _ _

Customer: ICCO117 Hyperion Code: CNA

SWItzerland VAT Reg.No.:

Sales Office:
Sales Administ.: SUSANNA BIANCO
Phone: 00 4162 887 41 19

Fax: 00 41 62 887 41 30

The exporter of the products 00vered by this document (customs authorization No. DE 9650/EN0265) declares that.
except where otherwise clearly indicated. these products are of CE preferential origin. Ulm, the (date see above).
According to formal obligation the document needs not to be undersigned.

The customs clearing has to be handled through the ZAZ-account 7731-4.

Shipment: 266250 Route: DEO1C7 Delivery I Date: 4021153660 / 06.02.2018/ ExtDellvery: -
Ship to: Geilinger AG. Werkstrasse, 20. CH. 8401. Winterthur. Switzerland _ ﬁ_ _
Sales Order No.: 4406099946 Customer P.0rder: EB 154677 HGFZ Luzern Building Project: HFGZ Luzern
Material I Description I MPG Qty Base Price Net Total VAT
(EUR) (EUR)
10/11 W1312132 Blendrahmen W2 29 PC 13.650.00 I1000 M 3.366.02 D5
8 Treatment : ACO.208P - A6 I C0 protected I Length ‘ 6.700 m
10 B.Price with ST 13.650.00 EUR <-> 1000 M 194.300 M 265220
IC B.Pricefor. ST 4,41 EUR <-> 1 M28 125.518 M28 553.53 EUR
IC Tr. Pr. - Markup 5.00 % 160.29
ltem§u§ 3.366 02
Customs Tariff No.: 76042100 Country of Origxn; European Union
20/42 W1917104 Fliigelproﬁl W2 15 PC 7601.85 /1000 M 1,043.26 05
8 Treatment : ACO.208 - A6100 I Len th . 6.500 m P _ _
1C B.Price with ST 7601,85 EUR <-> 1000 M 97,500 M 741.18
10 B.Price for. ST 5.87 EUR <-> 1 M28 42.998 M28 252,40 EUR
1C Tr Pr, - Markup 5,00 % 49.68 EUR
Item Sum _ _ _ _ _ _ 1,043.26 EUR L

Customs Tarm No, 76042100 CoLntry of Origin Eutopean Union

itemsTTotai 4.409.28
Net Value 440928
VAT (D5) Net: 4409.28 0.00 % 0,00
Total Amount - EUR _ _ 4.409 28
Customs Tariff No. Net Value Net Welght
76042100 4409,28 EUR 1 056,663 KG
PackagingIMarking Pack-No. Net Weight Gross Weight
Wooden crate 342504061650492562 201.540 KG 216.540 KG
Wooden crate 342504061650493026 530.766 KG 545.765 KG
Wooden crate 342504061650493033 324,357 KG 339.357 KG
Incoterms: CPT Carriage paid to - Gerstungen Hyperion Code: DWI

Payment terms: Due on the 15m of the following month net

VAT (05) Tax-free export delivery
In terms of amount reductions we refer to the cmrent payment and condition agreements.

Sapa Building Systems GmbH, Etnxteinstlaue 61. 0'89077 Uim
Snz der Gesellschah Ulm. Reg ~GenchtU1m. HR81938, Geschahstuhrer Henri Gomez. Zertitizier: nach DIN ISO 9001 2008
US! idNr DEB11154077. Cemmcyzbank Hamburg (81.2 200 400 00) 6197032. BlC/SWIFT CCBADEFFXXX, 16AM DE 05 2004 0000 0619 7032 00